$MeshFormat
2.2 0 8
$EndMeshFormat
$PhysicalNames
2
2 1 "left"
2 2 "right"
$EndPhysicalNames
$Nodes
665
1 0 0 0
2 5 0 0
3 10 0 0
4 10 2 0
5 5 2 0
6 0 2 0
7 0.1999999999998339 0 0
8 0.3999999999996643 0 0
9 0.5999999999995166 0 0
10 0.7999999999989961 0 0
11 0.9999999999984124 0 0
12 1.199999999997829 0 0
13 1.399999999997245 0 0
14 1.599999999996661 0 0
15 1.799999999996077 0 0
16 1.999999999995511 0 0
17 2.199999999995745 0 0
18 2.399999999996049 0 0
19 2.599999999996353 0 0
20 2.799999999996657 0 0
21 2.999999999996961 0 0
22 3.199999999997265 0 0
23 3.399999999997569 0 0
24 3.599999999997873 0 0
25 3.799999999998176 0 0
26 3.999999999998481 0 0
27 4.199999999998784 0 0
28 4.399999999999088 0 0
29 4.599999999999393 0 0
30 4.799999999999696 0 0
31 5.2 0 0
32 5.4 0 0
33 5.600000000000001 0 0
34 5.800000000000002 0 0
35 6.000000000000002 0 0
36 6.200000000000001 0 0
37 6.400000000000001 0 0
38 6.600000000000001 0 0
39 6.800000000000002 0 0
40 7.000000000000002 0 0
41 7.200000000000001 0 0
42 7.400000000000001 0 0
43 7.600000000000001 0 0
44 7.800000000000001 0 0
45 8 0 0
46 8.200000000000001 0 0
47 8.4 0 0
48 8.600000000000001 0 0
49 8.800000000000001 0 0
50 9 0 0
51 9.199999999999999 0 0
52 9.4 0 0
53 9.600000000000001 0 0
54 9.800000000000001 0 0
55 10 0.1999999999996293 0
56 10 0.3999999999991157 0
57 10 0.5999999999985328 0
58 10 0.7999999999979498 0
59 10 0.9999999999973885 0
60 10 1.199999999997894 0
61 10 1.39999999999842 0
62 10 1.599999999998947 0
63 10 1.799999999999474 0
64 9.799999999999999 2 0
65 9.6 2 0
66 9.399999999999999 2 0
67 9.199999999999999 2 0
68 8.999999999999998 2 0
69 8.799999999999999 2 0
70 8.599999999999998 2 0
71 8.399999999999999 2 0
72 8.199999999999999 2 0
73 7.999999999999998 2 0
74 7.799999999999999 2 0
75 7.599999999999999 2 0
76 7.399999999999999 2 0
77 7.199999999999999 2 0
78 7 2 0
79 6.799999999999999 2 0
80 6.6 2 0
81 6.399999999999999 2 0
82 6.199999999999999 2 0
83 5.999999999999999 2 0
84 5.8 2 0
85 5.6 2 0
86 5.399999999999999 2 0
87 5.199999999999999 2 0
88 4.8 2 0
89 4.6 2 0
90 4.399999999999999 2 0
91 4.199999999999998 2 0
92 3.999999999999999 2 0
93 3.799999999999999 2 0
94 3.599999999999999 2 0
95 3.399999999999999 2 0
96 3.199999999999998 2 0
97 2.999999999999999 2 0
98 2.799999999999999 2 0
99 2.599999999999999 2 0
100 2.399999999999999 2 0
101 2.199999999999999 2 0
102 2 2 0
103 1.799999999999999 2 0
104 1.599999999999999 2 0
105 1.399999999999999 2 0
106 1.199999999999999 2 0
107 0.9999999999999991 2 0
108 0.7999999999999998 2 0
109 0.5999999999999996 2 0
110 0.3999999999999995 2 0
111 0.1999999999999993 2 0
112 0 1.799999999999167 0
113 0 1.6 0
114 0 1.400000000001387 0
115 0 1.200000000002774 0
116 0 1.000000000004117 0
117 0 0.8000000000033287 0
118 0 0.6000000000024965 0
119 0 0.4000000000016644 0
120 0 0.200000000000832 0
121 5 0.1999999999996293 0
122 5 0.3999999999991157 0
123 5 0.5999999999985328 0
124 5 0.7999999999979498 0
125 5 0.9999999999973885 0
126 5 1.199999999997894 0
127 5 1.39999999999842 0
128 5 1.599999999998947 0
129 5 1.799999999999474 0
130 1.074290639962842 0.1872129501314005 0
131 1.708807787218761 0.1985395259875199 0
132 3.511313341729356 1.856769277233392 0
133 2.899999999999999 1.826794919243113 0
134 2.303376310170427 1.824542554788241 0
135 3.899999999997845 0.1732050807583772 0
136 1.299999999999999 1.826794919243113 0
137 2.699999999996314 0.1732050807573207 0
138 3.299999999997134 0.1732050807572929 0
139 4.811945518073151 1.072739316581688 0
140 0.1732050807563335 1.100000000003098 0
141 4.101285733274969 1.830928196389867 0
142 0.6979441483870821 1.822240108907212 0
143 0.1732050807574393 0.7000000000027163 0
144 4.822291395855666 0.6981596001979015 0
145 2.299999999995683 0.1732050807570597 0
146 1.695619837237784 1.841714422737442 0
147 4.29999999999834 0.1732050807596019 0
148 0.6981596001965574 0.1777086041442136 0
149 4.830547651829254 1.499999999998683 0
150 0.1722613419745292 1.498365396479427 0
151 4.491957606463566 1.84081548620757 0
152 0.1687392608836235 0.3077350269203898 0
153 4.692264973079325 0.168739260886169 0
154 0.3183651238131459 1.818860550512767 0
155 2.099999999995629 0.173205080756744 0
156 2.1999999999954 0.3464101615137595 0
157 2.399999999995367 0.3464101615142408 0
158 2.299999999994945 0.5196152422708173 0
159 2.499999999994928 0.51961524227136 0
160 2.399999999994473 0.6928203230279728 0
161 2.599999999994478 0.6928203230285079 0
162 2.200185116643788 0.6927134458801529 0
163 2.499999999994006 0.8660254037851415 0
164 2.699999999994026 0.8660254037856794 0
165 2.599999999993546 1.039230484542316 0
166 2.799999999993603 1.029530529024753 0
167 2.899999999994068 0.8644087445331859 0
168 3.001672125916115 1.026679024212008 0
169 3.100278687648313 0.8636640505223878 0
170 3.201997261512276 1.035779613259896 0
171 3.300379324856999 0.8650566996957139 0
172 3.399999999993812 1.039230484544504 0
173 3.500063220805011 0.865863953105989 0
174 3.600010536795712 1.039203576098057 0
175 3.700012292929851 0.8659940106002014 0
176 3.800001941298222 1.039225526923528 0
177 3.9000023723678 0.8660193453205245 0
178 4.000000513527129 1.039229173106745 0
179 2.399999999993556 1.029644657064472 0
180 4.100000480978966 0.8660241754714622 0
181 2.730823952134811 1.210609888749468 0
182 3.315191849915597 1.203873249050189 0
183 3.900000409133153 1.212434520459175 0
184 4.100000109835609 1.212435284793389 0
185 3.600012585619612 0.6927881823863304 0
186 3.000012090775329 0.6926477381464058 0
187 4.000000475554641 0.692819108567839 0
188 4.200000159419064 0.6928199159024298 0
189 4.299999999994592 0.8660254037899635 0
190 4.000000086490079 1.385640425167661 0
191 4.200000023366842 1.385640586369713 0
192 3.799999999993157 1.385640646059372 0
193 4.400000026565689 0.6928202551783654 0
194 4.100000105826266 0.5196149720099252 0
195 4.300000022196256 1.212435508603706 0
196 4.408931647337975 1.38803385231867 0
197 2.010136612204927 0.3405577857256171 0
198 3.900000096893862 0.5196149948199849 0
199 2.699999999995489 0.5196152422715262 0
200 4.50149780270795 0.8666092446214791 0
201 3.900000014408864 1.552257154648431 0
202 4.299999999992696 1.558845726817658 0
203 4.499999999993667 1.212435565304352 0
204 3.704939275347997 1.554895940885868 0
205 3.604159482028322 1.383056152323809 0
206 3.514648826497148 1.53663275832931 0
207 4.499999999992774 1.558845726818177 0
208 3.810701760861213 1.704140758193178 0
209 4.605284375652471 0.6943913501973122 0
210 4.500880733700178 0.5198770688283355 0
211 4.69999999999534 0.5196152422775719 0
212 4.703640142290434 0.8759521947689912 0
213 4.600593151429742 1.040618799895401 0
214 4.598857617794318 0.3457094959657483 0
215 4.8158196904477 0.3257820229498858 0
216 4.399956391914079 0.3463370216851775 0
217 3.999999999996013 0.3464101615183061 0
218 3.800000016145943 0.3464101202741636 0
219 3.700000002688749 0.1732050738841732 0
220 3.600000003136683 0.3464101534965829 0
221 0.172460777445037 0.5012891711552183 0
222 0.3462861109624505 0.6002148618611152 0
223 0.3463894864226279 0.8000358103122407 0
224 0.5195911213307359 0.7000417786969917 0
225 0.5196077762659947 0.9000129315031353 0
226 0.6928150585371462 0.8000091183678788 0
227 0.6928182012787747 1.000003674979788 0
228 0.8660241727448357 0.9000021322254776 0
229 0.8660248449870075 1.100000967867939 0
230 1.039230186235342 1.000000516682811 0
231 1.039230341691551 1.200000247424866 0
232 1.212435491772385 1.100000127351604 0
233 1.212435503326146 0.9000001073396648 0
234 1.385640640176487 1.000000010182411 0
235 1.385640634746262 0.8000000195875077 0
236 1.385640632821254 1.200000022922411 0
237 1.558845723626487 1.100000005517419 0
238 0.6928198762712798 1.200000773809208 0
239 0.8669979077214177 0.6990993794318517 0
240 1.558845724075669 1.30000000473983 0
241 1.732050807311942 1.200000000444713 0
242 1.732050806994751 1.000000000993585 0
243 1.899055710987758 1.102413003405057 0
244 1.90422252539339 1.30040216730781 0
245 1.385640643393876 1.400000004610445 0
246 1.212505244596349 0.7001207303947791 0
247 1.385652257386043 0.600020124997768 0
248 1.558847660148349 0.7000033574311512 0
249 0.5195905470226503 0.5000427734278827 0
250 2.096380737310943 1.187349182097218 0
251 2.081275369965499 1.397958558233493 0
252 1.909038375717924 1.493689468618218 0
253 1.907569895785206 0.8821564981885524 0
254 1.561576577385654 0.504729975673182 0
255 1.723070074617379 0.6034390555616874 0
256 1.391671680800939 0.3718404428038396 0
257 1.561574319042946 1.495273939623605 0
258 2.275698881283184 1.308777317676925 0
259 2.253212487174055 1.49605102561247 0
260 2.441976451732257 1.409350119796403 0
261 2.415650278398809 1.633918641488759 0
262 2.5997109209498 1.513684261912097 0
263 2.597367381412539 1.688961383985709 0
264 2.784763439544187 1.633646105446236 0
265 1.390754861174841 1.628408122250125 0
266 1.212435565298999 1.500000000000292 0
267 1.721581899676685 0.4109960129810721 0
268 2.770265365833718 1.404198644065867 0
269 2.944486372867439 1.499999999997623 0
270 2.928883316663559 1.312614586032282 0
271 3.108515649780301 1.412387491273523 0
272 3.119157455712071 1.596876565367428 0
273 3.307226280215081 1.523981116857332 0
274 3.256463920444043 1.696041310021553 0
275 3.114502283562498 1.802049489809935 0
276 0.3464054713310126 1.000008123637975 0
277 0.1732008532112355 0.9000073223272459 0
278 0.3464093798172139 1.2000013539422 0
279 4.829072075503256 1.295525921912752 0
280 4.631858150470426 1.393608183036142 0
281 0.5196126578730087 1.100004476312633 0
282 0.5196146067976457 1.300001100678365 0
283 0.6928201426593434 1.400000312414642 0
284 0.5196151063014997 1.500000235517249 0
285 0.6942580933416922 1.605026280939244 0
286 0.8663254950657822 1.500851153002219 0
287 0.5127654388941856 1.702025429944492 0
288 0.8737184914600959 1.699873035359463 0
289 1.039230484543636 1.601069760904496 0
290 1.065501367105891 1.807964995325342 0
291 0.3394933034255257 1.601573998553631 0
292 0.3450998031786834 1.399990347528825 0
293 4.498513163797423 0.1723318098827828 0
294 2.499999999995858 0.1732050807572343 0
295 4.400348496052723 1.039559167793571 0
296 4.200058270430878 1.039284785593139 0
297 4.099999999997712 0.1732050807593188 0
298 0.3455170166834976 0.4015469722281069 0
299 0.5170829414080587 0.3022121576703891 0
300 0.6947717836915244 0.3943178795017696 0
301 0.8772887048560118 0.2947542224233654 0
302 0.8714487738648646 0.4938607705564103 0
303 1.043685883166402 0.3913236060568182 0
304 0.3253927686415627 0.1845541306501534 0
305 1.212435565297671 0.5000000000014869 0
306 4.832241140557573 1.699152526143018 0
307 1.493598664001023 1.828093515437179 0
308 2.300215969418153 0.8643030758665455 0
309 2.206494552081968 1.019346612559523 0
310 3.09999999999708 0.1732050807571721 0
311 3.199999999997002 0.3464101615144085 0
312 2.999999999996954 0.3464101615142648 0
313 3.100002015126791 0.5195864781243407 0
314 3.300000335851628 0.5196104482479702 0
315 2.899999999996863 0.1732050807571834 0
316 2.799999999996315 0.3464101615143769 0
317 3.200112075709183 0.6922309562946852 0
318 2.478357040731896 1.213052839779654 0
319 1.886715224966297 1.842889749616099 0
320 1.039354527142448 0.799995503530576 0
321 1.558846045543373 0.9000005656186905 0
322 3.504688033995269 1.209729506383468 0
323 2.089831388637963 1.800111238334537 0
324 4.100000005384844 1.555142818765981 0
325 4.29958961004148 1.832663165914274 0
326 1.912221802799804 0.1712187568768987 0
327 1.299999999997537 0.1732050807563824 0
328 1.495949458933641 0.1786569035258916 0
329 2.082270806290217 1.586859442456186 0
330 1.212435526586959 1.300000067051275 0
331 1.732963759851894 1.398227596788931 0
332 2.800002015125047 0.6925221156727478 0
333 3.699999999993613 1.212435565302218 0
334 3.800004637226865 0.6928084806615544 0
335 2.102792497448894 0.5180029931136826 0
336 2.010925467467101 0.6956930130579473 0
337 0.6942025320280565 0.597895283330464 0
338 1.750577542127715 1.574610631523198 0
339 1.721307637044086 0.7975999129656188 0
340 3.700002889836558 0.5196078623188338 0
341 0.1728292676211267 1.299726182992952 0
342 4.300139569570348 0.5196465658539768 0
343 2.900001919167674 0.5195557712731544 0
344 2.599999999995712 0.3464101615143431 0
345 3.500000000969055 0.1732050782755047 0
346 4.200016011217126 0.3464031470977177 0
347 3.500002635739474 0.5196078551659984 0
348 3.399999999996326 0.3464101615149793 0
349 0.8660751975364418 1.300142242419484 0
350 3.400095029763651 0.6925263491494478 0
351 1.039230484543687 1.399999999998032 0
352 1.040018969761866 0.5998589240369956 0
353 2.1111084845471 0.8614484440911132 0
354 1.895764901139766 0.5119570013187948 0
355 0.1641228911971491 1.69391089206045 0
356 4.687921154205111 1.812339739123464 0
357 3.106033803684093 1.210588847117671 0
358 2.70921023941662 1.835027162768285 0
359 2.492742209337671 1.834085786972538 0
360 4.67610623400454 1.599999999998949 0
361 3.418734643819691 1.371348705624088 0
362 4.678349444631516 1.200416214901408 0
363 1.201250672558922 1.67441952671417 0
364 1.205103418447059 0.3243307159168664 0
365 1.575472458773077 0.3300313718214175 0
366 1.615104493569582 1.682192283519596 0
367 3.901997915688087 1.848985780232531 0
368 3.613307936183987 1.701930864837922 0
369 2.230362307672793 1.668660494030995 0
370 2.965093476903605 1.6696532199316 0
371 0.5058050443213299 0.1332034407000035 0
372 4.86644106742978 0.5022676418951999 0
373 0.5058149422188825 1.868625217872894 0
374 4.200145891446452 1.693819971062133 0
375 4.399999999992384 1.692820323027676 0
376 3.704442970769362 1.856072547112922 0
377 3.999999999992341 1.692519595457343 0
378 3.307320454227653 1.857327204412935 0
379 1.926169774726825 1.663776086170011 0
380 0.8999999999987041 0.1305125270631615 0
381 4.86948747293946 0.8999999999976693 0
382 0.8874328013906135 1.866015627918403 0
383 2.604226746276497 1.350179150860698 0
384 2.044121876142595 1.010542748068293 0
385 0.1464101615136336 1.853589838486143 0
386 0.1464101615142868 0.1464101615145542 0
387 4.85358983848589 0.1464101615139287 0
388 4.853589838485864 1.853589838485724 0
389 2.291386242280309 1.151634121835558 0
390 1.847461339175457 0.7000000000000469 0
391 2.899999999993282 1.154235832191395 0
392 1.852679487074535 0.3192534679556763 0
393 3.259103465617087 1.355067210424789 0
394 3.428109572811746 1.694160509553648 0
395 4.551196998931675 1.700964255035167 0
396 1.786428083084436 1.723003868100742 0
397 6.072179412617748 0.1900001762358139 0
398 7.099999999999998 0.1697011552059361 0
399 7.730823952138944 0.1901635567306947 0
400 8.500000000000014 1.830624632994446 0
401 6.700000000000001 1.830547651829665 0
402 8.896634976502133 0.1489593926984278 0
403 7.499999999999988 1.82679491924311 0
404 8.310467250329937 0.1588701472513307 0
405 6.074290639964299 1.812787049868194 0
406 9.826794919243088 1.099999999997802 0
407 5.173205080756897 1.09999999999782 0
408 9.100000000000001 1.840889061021187 0
409 5.17320508075648 0.6999999999982101 0
410 9.836228677923211 0.7085653243674011 0
411 8.100000000000012 1.826794919243114 0
412 6.499999999999995 0.1732050807568887 0
413 7.100000000000003 1.83029884479326 0
414 9.284392041877565 0.1799740746300627 0
415 5.697448219029818 0.177159902680504 0
416 5.698159600196928 1.822291395855947 0
417 9.826794919242721 1.499999999998624 0
418 5.172261341973479 1.498365396476071 0
419 9.517345130941116 1.820740775008576 0
420 9.70609436163377 0.1629316738068134 0
421 5.326236396782755 0.1801542827761712 0
422 5.318365123811687 1.818860550511362 0
423 5.173047790959744 1.299727566077694 0
424 5.346383946547519 1.199954594344462 0
425 5.346405792352418 0.999992432388893 0
426 5.519610144915669 1.099991171120559 0
427 5.519613664517376 0.8999972672501102 0
428 5.692819210508876 0.9999980730600648 0
429 5.693300557242535 1.199834816105545 0
430 5.866470591834574 1.099339370389629 0
431 5.866099416372113 0.8998895739067772 0
432 6.039317017980091 0.9998714907141704 0
433 6.039754130735447 1.199114989806477 0
434 6.2125372619029 1.099831080084591 0
435 6.212443731601034 0.8999870961203575 0
436 6.38565895653877 0.999969696031866 0
437 6.385660647235797 1.199966796017079 0
438 6.558852112088509 1.099989415339039 0
439 6.55884984277094 0.8999931852261238 0
440 6.73205255777381 0.9999971000916258 0
441 6.737285120715418 0.8090627837827303 0
442 6.906128565549929 0.9015099806430402 0
443 6.905401626229756 1.100251180119757 0
444 7.078630704936328 1.000293526790965 0
445 7.078474655816096 1.200023631942535 0
446 7.252195000344273 1.100916079396433 0
447 7.251782497564776 0.9002016010283034 0
448 7.425477077041546 1.001049499678172 0
449 7.424991529623566 0.8002085167813446 0
450 7.598197268930903 0.9002096694066692 0
451 7.598076211351877 1.099999999995216 0
452 7.771301468371847 1.000034944896921 0
453 7.771304831082142 0.8000407690472477 0
454 7.944493658738226 0.9000126189871637 0
455 7.944490949888313 1.10000792731051 0
456 8.117693430771652 1.00000342437927 0
457 8.12319343747907 1.190474068389334 0
458 8.291813861213678 1.098412915457598 0
459 8.291049751709743 0.8997360566357032 0
460 8.464280039163611 0.9996914953449023 0
461 8.46411600329699 0.7999751645086307 0
462 8.637338831257622 0.8999444433048336 0
463 8.637341789125134 1.099939323104156 0
464 8.810522981415923 0.9999806277305918 0
465 8.810519492983069 1.199986658468135 0
466 8.983720010923216 1.099994547695353 0
467 8.983719250453561 0.8999958625667388 0
468 9.152434296240783 0.9999984017058395 0
469 9.170864197607044 1.221369463886088 0
470 7.969498925533114 1.308226465975352 0
471 9.156174396683834 0.7999990440411242 0
472 7.944491510339587 0.7000088980022501 0
473 8.637314449813601 0.6999866012982403 0
474 7.247718194599178 1.294379116759196 0
475 8.298432713340073 1.286947881160563 0
476 6.904406477710515 1.298528557738186 0
477 6.910631074119395 0.7123437745707452 0
478 9.343962036221846 0.9213701062210484 0
479 9.327819698540402 0.7035615250393491 0
480 6.579889063927254 0.6837573303076523 0
481 9.156412794519785 0.6005934281759528 0
482 8.464105305482651 0.5999936276306715 0
483 7.771286071516187 0.6000082778383007 0
484 7.94448637286492 0.4999999999948247 0
485 8.63730860327038 0.4999967048174955 0
486 8.63731383082086 1.299987663591267 0
487 8.810511776650307 1.399999999993511 0
488 6.558850124554201 1.299992701890209 0
489 6.385644712541716 1.399993249648912 0
490 7.251705524296943 0.7000683529654272 0
491 7.424897776175762 0.6000461449547319 0
492 7.248051657579506 0.5128854900024957 0
493 7.410146520729482 0.3722909274420217 0
494 6.5603643817864 1.486763093067041 0
495 6.395037819939846 1.627583707052781 0
496 6.212435565297452 1.49999999999668 0
497 8.636556856219666 1.486623935390542 0
498 8.804397927182476 1.62786768593781 0
499 8.977679023896478 1.497001372448605 0
500 8.117692309867648 0.6000014829958606 0
501 8.810513386865839 0.5999972176818669 0
502 9.332874823946312 0.5062648732448241 0
503 9.521973619304054 0.6230311920679116 0
504 9.503332099676106 0.3999999999936017 0
505 9.171937147319904 0.3737166729200737 0
506 8.111288697031544 0.4015174914326715 0
507 7.926313385690556 0.3002529763097253 0
508 8.449765960320384 0.4183943770259467 0
509 8.610470844090276 0.3086449725424079 0
510 9.676537180432891 0.499999999993341 0
511 5.346222287589531 1.39967459281546 0
512 5.340603647662083 1.601182153110587 0
513 5.520096745948166 1.500142790986333 0
514 5.513943097868965 1.701012177886004 0
515 5.69581341122919 1.606250437159938 0
516 5.877412708134916 1.705313434321796 0
517 5.871352856200628 1.505223116647455 0
518 6.043685883166959 1.608676393941944 0
519 5.694732703880515 1.401275749012914 0
520 9.826794919242943 1.299999999998118 0
521 9.65358983848574 1.399999999998292 0
522 9.636484358971693 1.631198643687508 0
523 9.480384757728466 1.499999999998466 0
524 9.485156875037164 1.308265549635628 0
525 9.296627404676002 1.405620097285453 0
526 9.308554091752892 1.603770506141684 0
527 9.654385191370853 1.20137759160418 0
528 9.658494514608815 1.008495148236475 0
529 9.470003440065826 1.105527855905345 0
530 5.173204352563149 0.8999987387296674 0
531 5.346409048995452 0.7999980730604914 0
532 5.519614793891575 0.6999992233838724 0
533 5.346409901363967 0.59999954940631 0
534 5.520227884870129 0.496853480388602 0
535 5.69292235539695 0.5994754506276021 0
536 5.345475340481698 0.3986089582127639 0
537 5.69282032302692 0.3999999999985628 0
538 5.866042409178584 0.4999125751034318 0
539 5.874545454461261 0.3002773542849548 0
540 6.040994965763286 0.4007124111107223 0
541 6.039527398976361 0.6001041643678479 0
542 6.212435565297207 0.499999999999011 0
543 5.513701360698555 0.2960861185495283 0
544 9.829184658376954 0.9028434120991993 0
545 9.644937232262647 0.8062743315429012 0
546 9.830731312109036 1.701466482492344 0
547 9.499994508500095 0.2015252810281552 0
548 8.810520959535463 0.7999841254293412 0
549 8.983716857406987 1.299999999993296 0
550 9.306281908964312 1.816334343971068 0
551 9.091616227681094 0.1708658512691092 0
552 8.900732987863751 1.82897392881818 0
553 8.70085515250771 1.827339061457435 0
554 7.761830998926957 0.4019554830481058 0
555 8.803636591774223 0.4148843477509955 0
556 7.90000000000001 1.826794919243101 0
557 8.000000000000023 1.654881896215616 0
558 7.800000000000006 1.6550972391705 0
559 8.199448158080877 1.655402262563852 0
560 8.08605547244812 1.489908005331475 0
561 7.699999999999994 1.827046152690486 0
562 7.599999999999978 1.653882944174835 0
563 7.391944341639748 1.660411822028853 0
564 7.490210245491781 1.493669145411243 0
565 7.697840040359615 1.492285742578266 0
566 7.598524072776398 1.311318196216784 0
567 7.594372929783297 0.4992681534497104 0
568 7.777356753053429 1.1970637952402 0
569 7.419940272930949 1.1946364272687 0
570 6.299999999999995 1.826794919243115 0
571 6.499172969989971 1.826838752021854 0
572 7.499999999999991 0.1732050807568871 0
573 7.597508401185308 0.6999635885796673 0
574 6.212613491887472 1.299696976685753 0
575 6.699999999999992 0.1732050807568906 0
576 6.604726061934606 0.3436815683836137 0
577 6.800787676989096 0.3442034332164732 0
578 6.390165520699034 0.3735534920429374 0
579 6.696201665791354 0.506395983067393 0
580 6.900131279498183 0.1722533051155126 0
581 7.001548916969472 0.3287433002097311 0
582 6.29999999999999 0.1732050807568906 0
583 6.900000000000006 1.828004362265892 0
584 7.001395757554837 1.670931856301806 0
585 6.800232626259188 1.6734955019411 0
586 8.290925226392968 0.6999510552933206 0
587 8.102605703609344 0.1904529612573152 0
588 7.301691086788244 0.1734306286021515 0
589 7.081773320548894 1.38866933448565 0
590 7.273953104154417 1.488583806876872 0
591 6.73193561765411 1.199793159195824 0
592 8.117724314636636 0.7999522560489281 0
593 7.07955655592467 0.8024028726657294 0
594 5.172105495109332 0.501402688124888 0
595 6.389152967698031 0.7972845512802778 0
596 7.083053226208346 0.614769298286133 0
597 8.299908026346815 1.827735275547946 0
598 8.465547308133333 1.197496546442083 0
599 7.298657390273291 1.832019829642053 0
600 8.39882454516208 1.670580894057153 0
601 6.725926100284252 1.386743403189156 0
602 8.283991348551428 0.5092927365396109 0
603 8.471906965843115 1.384035183137827 0
604 8.983509607577425 0.700094946314828 0
605 5.519615242270433 1.29999999999746 0
606 8.987123788074022 0.5019719300349679 0
607 5.692849140744998 0.7998932647044061 0
608 5.86611186753476 0.6998791714513338 0
609 6.039296209601873 0.7999680353039895 0
610 6.385405842420941 0.5929731761862582 0
611 6.213043619265908 0.6983861705429569 0
612 6.040089749119428 1.39985104057001 0
613 5.867910958577539 1.298534887895679 0
614 8.503291020850888 0.1469794581028296 0
615 7.897840502004696 1.489322594104298 0
616 6.902256002825208 1.49852586621234 0
617 6.909149703670954 0.5160934343765405 0
618 5.16425507503478 1.693864243792334 0
619 5.166890641319007 0.3084076126231819 0
620 9.701739565450382 1.833915879088518 0
621 8.296688948485162 1.489967244465649 0
622 9.821096964243999 0.3203800656003136 0
623 7.20000000000001 1.674613391787095 0
624 7.198690334209541 0.3278397391131274 0
625 6.604660527038737 1.670415560089238 0
626 8.59256388322995 1.667855658095269 0
627 9.020044496836281 1.680672218537786 0
628 6.201149815187842 0.3237092937127977 0
629 7.599999999999994 0.3213080874198578 0
630 8.955670898329529 0.31142006979629 0
631 9.844777840387341 0.5153348074970109 0
632 9.474615327776432 0.8001994196479271 0
633 9.29461527019135 1.09957182510842 0
634 9.118046515112813 1.399977082238074 0
635 6.20636972117588 1.676252151370246 0
636 6.529846810050012 0.5016256357896329 0
637 8.700000000000005 0.1398840839634435 0
638 9.148910527768386 1.557444123636472 0
639 7.9 0.1366317289482844 0
640 5.897093559251808 0.1347964713809187 0
641 9.358506124263995 0.3322961803633435 0
642 5.506093564375515 1.868432824850663 0
643 9.641411022897373 0.316967404084445 0
644 9.460288568296406 1.66519237886398 0
645 8.270170592213375 0.335898384859195 0
646 5.897389782814253 1.869120673445018 0
647 5.505340853787305 0.1286972112124765 0
648 7.406069177990545 1.356517338506559 0
649 7.78821205874545 1.35964335882298 0
650 9.853589838485755 1.853589838485612 0
651 5.146410161513838 0.1464101615137362 0
652 5.146410161513685 1.853589838486174 0
653 9.854608147089245 0.1453918529106366 0
654 9.338597022473671 1.241749879653374 0
655 9.51146046673554 0.9440695771046559 0
656 9.683260992467982 0.6513919462129171 0
657 7.096589610820162 1.545385798266156 0
658 7.088098767727563 0.4600662523976056 0
659 9.176758205064374 1.699822050661639 0
660 6.763450820289467 0.6543864173899143 0
661 6.718687927638758 1.543188684899775 0
662 8.496902138059594 1.543187827776856 0
663 8.150696802589509 1.342833058662697 0
664 8.783076658625813 0.2581222241041665 0
665 8.428833133560971 0.273757467956342 0
$EndNodes
$Elements
1208
1 2 2 1 10 136 106 290
2 2 2 1 10 196 203 280
3 2 2 1 10 256 327 328
4 2 2 1 10 136 265 307
5 2 2 1 10 212 139 213
6 2 2 1 10 264 133 358
7 2 2 1 10 134 261 359
8 2 2 1 10 301 130 303
9 2 2 1 10 287 154 291
10 2 2 1 10 260 258 318
11 2 2 1 10 207 196 280
12 2 2 1 10 318 258 389
13 2 2 1 10 268 181 270
14 2 2 1 10 133 264 370
15 2 2 1 10 270 181 391
16 2 2 1 10 130 301 380
17 2 2 1 10 139 212 381
18 2 2 1 10 261 134 369
19 2 2 1 10 106 107 290
20 2 2 1 10 121 122 215
21 2 2 1 10 7 8 304
22 2 2 1 10 136 290 363
23 2 2 1 10 256 328 365
24 2 2 1 10 307 265 366
25 2 2 1 10 154 287 373
26 2 2 1 10 97 133 275
27 2 2 1 10 96 97 275
28 2 2 1 10 299 148 300
29 2 2 1 10 144 209 211
30 2 2 1 10 285 142 287
31 2 2 1 10 329 323 379
32 2 2 1 10 358 99 359
33 2 2 1 10 121 215 387
34 2 2 1 10 7 304 386
35 2 2 1 10 261 263 359
36 2 2 1 10 263 264 358
37 2 2 1 10 209 144 212
38 2 2 1 10 300 148 301
39 2 2 1 10 142 285 288
40 2 2 1 10 265 136 363
41 2 2 1 10 280 203 362
42 2 2 1 10 273 206 394
43 2 2 1 10 327 256 364
44 2 2 1 10 253 336 353
45 2 2 1 10 274 273 394
46 2 2 1 10 291 154 355
47 2 2 1 10 323 319 379
48 2 2 1 10 263 358 359
49 2 2 1 10 306 356 360
50 2 2 1 10 323 329 369
51 2 2 1 10 367 93 376
52 2 2 1 10 200 209 212
53 2 2 1 10 285 286 288
54 2 2 1 10 302 239 337
55 2 2 1 10 213 139 362
56 2 2 1 10 131 267 365
57 2 2 1 10 300 301 302
58 2 2 1 10 303 305 352
59 2 2 1 10 267 131 392
60 2 2 1 10 300 302 337
61 2 2 1 10 302 303 352
62 2 2 1 10 200 212 213
63 2 2 1 10 288 286 289
64 2 2 1 10 207 280 360
65 2 2 1 10 336 253 390
66 2 2 1 10 360 356 395
67 2 2 1 10 239 302 352
68 2 2 1 10 206 273 361
69 2 2 1 10 255 267 354
70 2 2 1 10 302 301 303
71 2 2 1 10 148 299 371
72 2 2 1 10 287 142 373
73 2 2 1 10 144 211 372
74 2 2 1 10 200 213 295
75 2 2 1 10 213 203 295
76 2 2 1 10 266 289 351
77 2 2 1 10 289 286 351
78 2 2 1 10 275 133 370
79 2 2 1 10 146 366 396
80 2 2 1 10 208 367 376
81 2 2 1 10 288 289 290
82 2 2 1 10 250 309 389
83 2 2 1 10 303 130 364
84 2 2 1 10 291 150 292
85 2 2 1 10 214 153 215
86 2 2 1 10 26 27 297
87 2 2 1 10 147 216 346
88 2 2 1 10 284 291 292
89 2 2 1 10 153 214 293
90 2 2 1 10 28 29 293
91 2 2 1 10 278 292 341
92 2 2 1 10 292 150 341
93 2 2 1 10 278 282 292
94 2 2 1 10 216 147 293
95 2 2 1 10 135 217 218
96 2 2 1 10 276 140 277
97 2 2 1 10 135 218 219
98 2 2 1 10 140 276 278
99 2 2 1 10 282 284 292
100 2 2 1 10 169 186 317
101 2 2 1 10 225 227 281
102 2 2 1 10 297 147 346
103 2 2 1 10 27 147 297
104 2 2 1 10 278 281 282
105 2 2 1 10 135 26 297
106 2 2 1 10 186 313 317
107 2 2 1 10 29 153 293
108 2 2 1 10 147 28 293
109 2 2 1 10 332 199 343
110 2 2 1 10 227 238 281
111 2 2 1 10 199 316 343
112 2 2 1 10 214 216 293
113 2 2 1 10 116 117 277
114 2 2 1 10 276 225 281
115 2 2 1 10 25 135 219
116 2 2 1 10 140 116 277
117 2 2 1 10 24 25 219
118 2 2 1 10 223 276 277
119 2 2 1 10 171 169 317
120 2 2 1 10 217 135 297
121 2 2 1 10 316 199 344
122 2 2 1 10 140 278 341
123 2 2 1 10 137 316 344
124 2 2 1 10 220 347 348
125 2 2 1 10 313 186 343
126 2 2 1 10 220 340 347
127 2 2 1 10 220 218 340
128 2 2 1 10 143 223 277
129 2 2 1 10 186 332 343
130 2 2 1 10 219 218 220
131 2 2 1 10 143 118 221
132 2 2 1 10 143 221 222
133 2 2 1 10 294 137 344
134 2 2 1 10 125 126 139
135 2 2 1 10 139 126 279
136 2 2 1 10 19 137 294
137 2 2 1 10 18 19 294
138 2 2 1 10 278 276 281
139 2 2 1 10 117 143 277
140 2 2 1 10 249 222 298
141 2 2 1 10 222 221 298
142 2 2 1 10 24 219 345
143 2 2 1 10 143 222 223
144 2 2 1 10 117 118 143
145 2 2 1 10 281 238 282
146 2 2 1 10 155 197 326
147 2 2 1 10 314 347 350
148 2 2 1 10 16 17 155
149 2 2 1 10 119 152 221
150 2 2 1 10 189 200 295
151 2 2 1 10 155 145 156
152 2 2 1 10 127 149 279
153 2 2 1 10 279 149 280
154 2 2 1 10 223 225 276
155 2 2 1 10 249 298 299
156 2 2 1 10 223 222 224
157 2 2 1 10 126 127 279
158 2 2 1 10 17 145 155
159 2 2 1 10 249 299 300
160 2 2 1 10 145 18 294
161 2 2 1 10 138 345 348
162 2 2 1 10 317 314 350
163 2 2 1 10 189 295 296
164 2 2 1 10 16 155 326
165 2 2 1 10 118 119 221
166 2 2 1 10 195 184 296
167 2 2 1 10 223 224 225
168 2 2 1 10 23 24 345
169 2 2 1 10 110 111 154
170 2 2 1 10 17 18 145
171 2 2 1 10 119 120 152
172 2 2 1 10 221 152 298
173 2 2 1 10 194 217 346
174 2 2 1 10 295 195 296
175 2 2 1 10 284 287 291
176 2 2 1 10 155 156 197
177 2 2 1 10 184 178 296
178 2 2 1 10 29 30 153
179 2 2 1 10 322 174 333
180 2 2 1 10 203 195 295
181 2 2 1 10 108 109 142
182 2 2 1 10 224 222 249
183 2 2 1 10 224 249 337
184 2 2 1 10 189 193 200
185 2 2 1 10 137 315 316
186 2 2 1 10 197 156 335
187 2 2 1 10 225 224 226
188 2 2 1 10 230 228 320
189 2 2 1 10 249 300 337
190 2 2 1 10 137 20 315
191 2 2 1 10 228 239 320
192 2 2 1 10 200 193 209
193 2 2 1 10 180 188 189
194 2 2 1 10 149 128 306
195 2 2 1 10 205 322 333
196 2 2 1 10 189 188 193
197 2 2 1 10 178 180 296
198 2 2 1 10 178 177 180
199 2 2 1 10 176 177 178
200 2 2 1 10 254 247 256
201 2 2 1 10 235 233 246
202 2 2 1 10 227 229 238
203 2 2 1 10 196 195 203
204 2 2 1 10 253 242 339
205 2 2 1 10 235 246 247
206 2 2 1 10 27 28 147
207 2 2 1 10 127 128 149
208 2 2 1 10 180 189 296
209 2 2 1 10 298 152 304
210 2 2 1 10 209 210 211
211 2 2 1 10 20 21 315
212 2 2 1 10 176 178 183
213 2 2 1 10 105 136 307
214 2 2 1 10 312 311 313
215 2 2 1 10 310 311 312
216 2 2 1 10 128 129 306
217 2 2 1 10 162 160 308
218 2 2 1 10 247 246 305
219 2 2 1 10 310 138 311
220 2 2 1 10 245 266 330
221 2 2 1 10 91 92 141
222 2 2 1 10 233 230 320
223 2 2 1 10 225 226 227
224 2 2 1 10 248 247 254
225 2 2 1 10 256 247 305
226 2 2 1 10 315 312 316
227 2 2 1 10 22 138 310
228 2 2 1 10 191 184 195
229 2 2 1 10 183 178 184
230 2 2 1 10 313 314 317
231 2 2 1 10 242 237 321
232 2 2 1 10 211 214 215
233 2 2 1 10 308 179 309
234 2 2 1 10 105 106 136
235 2 2 1 10 156 158 335
236 2 2 1 10 163 179 308
237 2 2 1 10 160 163 308
238 2 2 1 10 174 175 176
239 2 2 1 10 228 226 239
240 2 2 1 10 180 187 188
241 2 2 1 10 313 311 314
242 2 2 1 10 158 160 162
243 2 2 1 10 255 254 267
244 2 2 1 10 146 104 307
245 2 2 1 10 172 174 322
246 2 2 1 10 234 233 235
247 2 2 1 10 103 146 319
248 2 2 1 10 170 172 182
249 2 2 1 10 25 26 135
250 2 2 1 10 104 105 307
251 2 2 1 10 163 165 179
252 2 2 1 10 19 20 137
253 2 2 1 10 21 22 310
254 2 2 1 10 22 23 138
255 2 2 1 10 272 274 275
256 2 2 1 10 245 265 266
257 2 2 1 10 176 175 177
258 2 2 1 10 192 190 201
259 2 2 1 10 246 233 320
260 2 2 1 10 103 104 146
261 2 2 1 10 179 165 318
262 2 2 1 10 21 310 315
263 2 2 1 10 183 184 190
264 2 2 1 10 310 312 315
265 2 2 1 10 102 103 319
266 2 2 1 10 272 273 274
267 2 2 1 10 172 173 174
268 2 2 1 10 282 238 283
269 2 2 1 10 227 226 228
270 2 2 1 10 232 230 233
271 2 2 1 10 204 201 208
272 2 2 1 10 165 181 318
273 2 2 1 10 269 271 272
274 2 2 1 10 165 166 181
275 2 2 1 10 272 271 273
276 2 2 1 10 91 141 325
277 2 2 1 10 102 319 323
278 2 2 1 10 183 190 192
279 2 2 1 10 201 190 324
280 2 2 1 10 182 172 322
281 2 2 1 10 170 171 172
282 2 2 1 10 165 164 166
283 2 2 1 10 163 164 165
284 2 2 1 10 174 173 175
285 2 2 1 10 261 262 263
286 2 2 1 10 192 201 204
287 2 2 1 10 101 102 323
288 2 2 1 10 235 247 248
289 2 2 1 10 263 262 264
290 2 2 1 10 190 184 191
291 2 2 1 10 174 176 333
292 2 2 1 10 264 262 268
293 2 2 1 10 264 268 269
294 2 2 1 10 158 159 160
295 2 2 1 10 156 145 157
296 2 2 1 10 100 101 134
297 2 2 1 10 97 98 133
298 2 2 1 10 94 95 132
299 2 2 1 10 269 270 271
300 2 2 1 10 160 161 163
301 2 2 1 10 134 101 323
302 2 2 1 10 244 251 252
303 2 2 1 10 163 161 164
304 2 2 1 10 269 268 270
305 2 2 1 10 261 260 262
306 2 2 1 10 243 242 253
307 2 2 1 10 172 171 173
308 2 2 1 10 180 177 187
309 2 2 1 10 241 237 242
310 2 2 1 10 205 204 206
311 2 2 1 10 168 169 170
312 2 2 1 10 244 252 331
313 2 2 1 10 191 202 324
314 2 2 1 10 259 260 261
315 2 2 1 10 156 157 158
316 2 2 1 10 190 191 324
317 2 2 1 10 209 193 210
318 2 2 1 10 312 313 343
319 2 2 1 10 192 204 205
320 2 2 1 10 170 169 171
321 2 2 1 10 259 258 260
322 2 2 1 10 236 240 245
323 2 2 1 10 11 12 130
324 2 2 1 10 14 15 131
325 2 2 1 10 166 167 168
326 2 2 1 10 166 164 167
327 2 2 1 10 251 258 259
328 2 2 1 10 245 257 265
329 2 2 1 10 299 298 304
330 2 2 1 10 175 173 185
331 2 2 1 10 237 234 321
332 2 2 1 10 13 14 328
333 2 2 1 10 241 242 243
334 2 2 1 10 244 250 251
335 2 2 1 10 251 250 258
336 2 2 1 10 90 91 325
337 2 2 1 10 241 243 244
338 2 2 1 10 12 13 327
339 2 2 1 10 160 159 161
340 2 2 1 10 232 233 234
341 2 2 1 10 244 243 250
342 2 2 1 10 248 254 255
343 2 2 1 10 188 187 194
344 2 2 1 10 252 251 329
345 2 2 1 10 227 228 229
346 2 2 1 10 234 235 321
347 2 2 1 10 245 240 257
348 2 2 1 10 168 167 169
349 2 2 1 10 251 259 329
350 2 2 1 10 183 192 333
351 2 2 1 10 9 10 148
352 2 2 1 10 282 283 284
353 2 2 1 10 240 237 241
354 2 2 1 10 229 228 230
355 2 2 1 10 335 162 336
356 2 2 1 10 236 234 237
357 2 2 1 10 191 195 196
358 2 2 1 10 236 237 240
359 2 2 1 10 164 161 332
360 2 2 1 10 236 245 330
361 2 2 1 10 158 157 159
362 2 2 1 10 169 167 186
363 2 2 1 10 192 205 333
364 2 2 1 10 241 244 331
365 2 2 1 10 176 183 333
366 2 2 1 10 226 224 337
367 2 2 1 10 232 234 236
368 2 2 1 10 191 196 202
369 2 2 1 10 14 131 328
370 2 2 1 10 231 230 232
371 2 2 1 10 231 232 330
372 2 2 1 10 15 16 326
373 2 2 1 10 130 12 327
374 2 2 1 10 187 177 334
375 2 2 1 10 327 13 328
376 2 2 1 10 89 90 151
377 2 2 1 10 161 159 199
378 2 2 1 10 229 230 231
379 2 2 1 10 151 90 325
380 2 2 1 10 202 196 207
381 2 2 1 10 240 241 331
382 2 2 1 10 257 240 331
383 2 2 1 10 167 164 332
384 2 2 1 10 175 185 334
385 2 2 1 10 217 198 218
386 2 2 1 10 232 236 330
387 2 2 1 10 194 198 217
388 2 2 1 10 177 175 334
389 2 2 1 10 198 187 334
390 2 2 1 10 158 162 335
391 2 2 1 10 194 187 198
392 2 2 1 10 235 248 321
393 2 2 1 10 211 210 214
394 2 2 1 10 284 285 287
395 2 2 1 10 239 226 337
396 2 2 1 10 186 167 332
397 2 2 1 10 115 116 140
398 2 2 1 10 131 15 326
399 2 2 1 10 161 199 332
400 2 2 1 10 188 194 342
401 2 2 1 10 210 193 342
402 2 2 1 10 242 321 339
403 2 2 1 10 123 124 144
404 2 2 1 10 331 252 338
405 2 2 1 10 193 188 342
406 2 2 1 10 217 297 346
407 2 2 1 10 316 312 343
408 2 2 1 10 159 157 344
409 2 2 1 10 157 145 294
410 2 2 1 10 285 283 286
411 2 2 1 10 257 331 338
412 2 2 1 10 114 115 341
413 2 2 1 10 218 198 340
414 2 2 1 10 334 185 340
415 2 2 1 10 216 210 342
416 2 2 1 10 284 283 285
417 2 2 1 10 113 114 150
418 2 2 1 10 214 210 216
419 2 2 1 10 198 334 340
420 2 2 1 10 347 314 348
421 2 2 1 10 248 255 339
422 2 2 1 10 321 248 339
423 2 2 1 10 157 294 344
424 2 2 1 10 199 159 344
425 2 2 1 10 115 140 341
426 2 2 1 10 138 23 345
427 2 2 1 10 150 114 341
428 2 2 1 10 219 220 345
429 2 2 1 10 345 220 348
430 2 2 1 10 311 138 348
431 2 2 1 10 342 194 346
432 2 2 1 10 171 317 350
433 2 2 1 10 173 171 350
434 2 2 1 10 238 229 349
435 2 2 1 10 283 238 349
436 2 2 1 10 216 342 346
437 2 2 1 10 314 311 348
438 2 2 1 10 340 185 347
439 2 2 1 10 330 266 351
440 2 2 1 10 347 185 350
441 2 2 1 10 229 231 349
442 2 2 1 10 185 173 350
443 2 2 1 10 286 283 349
444 2 2 1 10 349 231 351
445 2 2 1 10 286 349 351
446 2 2 1 10 231 330 351
447 2 2 1 10 258 250 389
448 2 2 1 10 320 239 352
449 2 2 1 10 305 246 352
450 2 2 1 10 308 309 353
451 2 2 1 10 336 162 353
452 2 2 1 10 246 320 352
453 2 2 1 10 162 308 353
454 2 2 1 10 366 338 396
455 2 2 1 10 335 336 354
456 2 2 1 10 132 378 394
457 2 2 1 10 150 291 355
458 2 2 1 10 112 113 355
459 2 2 1 10 88 89 356
460 2 2 1 10 168 170 357
461 2 2 1 10 197 335 354
462 2 2 1 10 96 275 378
463 2 2 1 10 98 99 358
464 2 2 1 10 168 357 391
465 2 2 1 10 99 100 359
466 2 2 1 10 271 270 357
467 2 2 1 10 280 149 360
468 2 2 1 10 182 322 361
469 2 2 1 10 205 206 361
470 2 2 1 10 301 148 380
471 2 2 1 10 212 144 381
472 2 2 1 10 134 323 369
473 2 2 1 10 266 265 363
474 2 2 1 10 279 280 362
475 2 2 1 10 113 150 355
476 2 2 1 10 89 151 356
477 2 2 1 10 170 182 357
478 2 2 1 10 142 288 382
479 2 2 1 10 354 267 392
480 2 2 1 10 254 256 365
481 2 2 1 10 265 257 366
482 2 2 1 10 92 93 367
483 2 2 1 10 206 204 368
484 2 2 1 10 259 261 369
485 2 2 1 10 272 275 370
486 2 2 1 10 264 269 370
487 2 2 1 10 290 289 363
488 2 2 1 10 378 274 394
489 2 2 1 10 110 154 373
490 2 2 1 10 142 109 373
491 2 2 1 10 9 148 371
492 2 2 1 10 123 144 372
493 2 2 1 10 94 132 376
494 2 2 1 10 208 201 377
495 2 2 1 10 132 95 378
496 2 2 1 10 357 270 391
497 2 2 1 10 338 252 379
498 2 2 1 10 125 139 381
499 2 2 1 10 11 130 380
500 2 2 1 10 148 10 380
501 2 2 1 10 144 124 381
502 2 2 1 10 328 131 365
503 2 2 1 10 146 307 366
504 2 2 1 10 256 305 364
505 2 2 1 10 215 153 387
506 2 2 1 10 6 112 385
507 2 2 1 10 304 152 386
508 2 2 1 10 120 1 386
509 2 2 1 10 1 7 386
510 2 2 1 10 2 121 387
511 2 2 1 10 30 2 387
512 2 2 1 10 129 5 388
513 2 2 1 10 5 88 388
514 2 2 1 10 111 6 385
515 2 2 1 10 179 318 389
516 2 2 1 10 253 339 390
517 2 2 1 10 181 166 391
518 2 2 1 10 131 326 392
519 2 2 1 10 108 142 382
520 2 2 1 10 271 357 393
521 2 2 1 10 133 98 358
522 2 2 1 10 275 274 378
523 2 2 1 10 100 134 359
524 2 2 1 10 149 306 360
525 2 2 1 10 357 182 393
526 2 2 1 10 130 327 364
527 2 2 1 10 322 205 361
528 2 2 1 10 197 354 392
529 2 2 1 10 203 213 362
530 2 2 1 10 289 266 363
531 2 2 1 10 139 279 362
532 2 2 1 10 309 250 384
533 2 2 1 10 305 303 364
534 2 2 1 10 250 243 384
535 2 2 1 10 260 318 383
536 2 2 1 10 354 336 390
537 2 2 1 10 206 368 394
538 2 2 1 10 215 122 372
539 2 2 1 10 304 8 371
540 2 2 1 10 262 260 383
541 2 2 1 10 367 208 377
542 2 2 1 10 132 368 376
543 2 2 1 10 181 268 383
544 2 2 1 10 267 254 365
545 2 2 1 10 257 338 366
546 2 2 1 10 268 262 383
547 2 2 1 10 141 92 367
548 2 2 1 10 204 208 368
549 2 2 1 10 255 354 390
550 2 2 1 10 329 259 369
551 2 2 1 10 269 272 370
552 2 2 1 10 290 107 382
553 2 2 1 10 243 253 384
554 2 2 1 10 253 353 384
555 2 2 1 10 374 141 377
556 2 2 1 10 122 123 372
557 2 2 1 10 8 9 371
558 2 2 1 10 299 304 371
559 2 2 1 10 325 141 374
560 2 2 1 10 325 374 375
561 2 2 1 10 151 325 375
562 2 2 1 10 211 215 372
563 2 2 1 10 109 110 373
564 2 2 1 10 324 202 374
565 2 2 1 10 374 202 375
566 2 2 1 10 202 207 375
567 2 2 1 10 324 374 377
568 2 2 1 10 93 94 376
569 2 2 1 10 201 324 377
570 2 2 1 10 95 96 378
571 2 2 1 10 252 329 379
572 2 2 1 10 107 108 382
573 2 2 1 10 10 11 380
574 2 2 1 10 124 125 381
575 2 2 1 10 288 290 382
576 2 2 1 10 356 151 395
577 2 2 1 10 318 181 383
578 2 2 1 10 112 355 385
579 2 2 1 10 88 356 388
580 2 2 1 10 353 309 384
581 2 2 1 10 338 379 396
582 2 2 1 10 182 361 393
583 2 2 1 10 154 111 385
584 2 2 1 10 152 120 386
585 2 2 1 10 153 30 387
586 2 2 1 10 306 129 388
587 2 2 1 10 309 179 389
588 2 2 1 10 339 255 390
589 2 2 1 10 166 168 391
590 2 2 1 10 326 197 392
591 2 2 1 10 273 271 393
592 2 2 1 10 368 132 394
593 2 2 1 10 319 146 396
594 2 2 1 10 355 154 385
595 2 2 1 10 356 306 388
596 2 2 1 10 141 367 377
597 2 2 1 10 368 208 376
598 2 2 1 10 361 273 393
599 2 2 1 10 207 360 395
600 2 2 1 10 151 375 395
601 2 2 1 10 375 207 395
602 2 2 1 10 379 319 396
603 2 2 2 20 399 507 554
604 2 2 2 20 419 522 620
605 2 2 2 20 414 505 551
606 2 2 2 20 507 399 639
607 2 2 2 20 539 397 540
608 2 2 2 20 522 419 644
609 2 2 2 20 572 493 588
610 2 2 2 20 570 495 571
611 2 2 2 20 542 578 610
612 2 2 2 20 498 552 553
613 2 2 2 20 405 516 518
614 2 2 2 20 505 414 641
615 2 2 2 20 536 421 543
616 2 2 2 20 588 493 624
617 2 2 2 20 422 512 514
618 2 2 2 20 397 539 640
619 2 2 2 20 571 495 625
620 2 2 2 20 498 553 626
621 2 2 2 20 516 405 646
622 2 2 2 20 564 563 590
623 2 2 2 20 510 622 631
624 2 2 2 20 622 510 643
625 2 2 2 20 610 578 636
626 2 2 2 20 422 514 642
627 2 2 2 20 503 545 632
628 2 2 2 20 478 529 633
629 2 2 2 20 469 525 634
630 2 2 2 20 529 478 655
631 2 2 2 20 525 469 654
632 2 2 2 20 545 503 656
633 2 2 2 20 416 514 515
634 2 2 2 20 564 590 648
635 2 2 2 20 543 421 647
636 2 2 2 20 552 498 627
637 2 2 2 20 506 587 645
638 2 2 2 20 416 515 516
639 2 2 2 20 415 537 543
640 2 2 2 20 470 560 615
641 2 2 2 20 578 542 628
642 2 2 2 20 525 526 638
643 2 2 2 20 537 415 539
644 2 2 2 20 495 570 635
645 2 2 2 20 522 546 620
646 2 2 2 20 634 525 638
647 2 2 2 20 550 526 644
648 2 2 2 20 534 536 543
649 2 2 2 20 493 492 624
650 2 2 2 20 506 507 587
651 2 2 2 20 504 547 643
652 2 2 2 20 512 422 618
653 2 2 2 20 421 536 619
654 2 2 2 20 493 572 629
655 2 2 2 20 537 534 543
656 2 2 2 20 547 504 641
657 2 2 2 20 399 554 629
658 2 2 2 20 560 470 663
659 2 2 2 20 509 508 665
660 2 2 2 20 614 509 665
661 2 2 2 20 587 404 645
662 2 2 2 20 495 494 625
663 2 2 2 20 540 397 628
664 2 2 2 20 519 513 605
665 2 2 2 20 551 505 630
666 2 2 2 20 579 480 636
667 2 2 2 20 497 498 626
668 2 2 2 20 516 515 517
669 2 2 2 20 496 518 612
670 2 2 2 20 446 448 569
671 2 2 2 20 480 579 660
672 2 2 2 20 612 517 613
673 2 2 2 20 518 517 612
674 2 2 2 20 566 451 568
675 2 2 2 20 419 550 644
676 2 2 2 20 429 519 605
677 2 2 2 20 515 513 519
678 2 2 2 20 451 566 569
679 2 2 2 20 517 519 613
680 2 2 2 20 474 446 569
681 2 2 2 20 448 451 569
682 2 2 2 20 547 420 643
683 2 2 2 20 631 410 656
684 2 2 2 20 516 517 518
685 2 2 2 20 517 515 519
686 2 2 2 20 514 416 642
687 2 2 2 20 590 563 623
688 2 2 2 20 405 518 635
689 2 2 2 20 521 524 527
690 2 2 2 20 527 524 529
691 2 2 2 20 423 407 424
692 2 2 2 20 423 424 511
693 2 2 2 20 126 125 407
694 2 2 2 20 59 60 406
695 2 2 2 20 126 407 423
696 2 2 2 20 406 60 520
697 2 2 2 20 406 520 527
698 2 2 2 20 520 521 527
699 2 2 2 20 59 406 544
700 2 2 2 20 407 125 530
701 2 2 2 20 427 425 531
702 2 2 2 20 513 511 605
703 2 2 2 20 410 544 545
704 2 2 2 20 425 530 531
705 2 2 2 20 58 59 544
706 2 2 2 20 125 124 530
707 2 2 2 20 511 424 605
708 2 2 2 20 410 58 544
709 2 2 2 20 124 409 530
710 2 2 2 20 418 127 423
711 2 2 2 20 531 409 533
712 2 2 2 20 61 417 520
713 2 2 2 20 60 61 520
714 2 2 2 20 127 126 423
715 2 2 2 20 536 533 594
716 2 2 2 20 424 407 425
717 2 2 2 20 406 527 528
718 2 2 2 20 533 409 594
719 2 2 2 20 427 531 532
720 2 2 2 20 418 423 511
721 2 2 2 20 406 528 544
722 2 2 2 20 520 417 521
723 2 2 2 20 425 407 530
724 2 2 2 20 512 511 513
725 2 2 2 20 62 63 546
726 2 2 2 20 414 52 547
727 2 2 2 20 123 122 594
728 2 2 2 20 473 501 548
729 2 2 2 20 524 523 525
730 2 2 2 20 521 523 524
731 2 2 2 20 530 409 531
732 2 2 2 20 512 513 514
733 2 2 2 20 521 522 523
734 2 2 2 20 514 513 515
735 2 2 2 20 544 528 545
736 2 2 2 20 53 420 547
737 2 2 2 20 31 32 421
738 2 2 2 20 53 54 420
739 2 2 2 20 128 127 418
740 2 2 2 20 462 473 548
741 2 2 2 20 565 564 566
742 2 2 2 20 499 487 549
743 2 2 2 20 61 62 417
744 2 2 2 20 548 501 604
745 2 2 2 20 503 504 510
746 2 2 2 20 532 531 533
747 2 2 2 20 562 564 565
748 2 2 2 20 525 523 526
749 2 2 2 20 409 123 594
750 2 2 2 20 468 471 478
751 2 2 2 20 558 562 565
752 2 2 2 20 463 462 464
753 2 2 2 20 465 464 466
754 2 2 2 20 67 68 408
755 2 2 2 20 466 467 468
756 2 2 2 20 487 465 549
757 2 2 2 20 460 461 462
758 2 2 2 20 70 400 553
759 2 2 2 20 479 502 503
760 2 2 2 20 74 75 561
761 2 2 2 20 33 34 415
762 2 2 2 20 508 482 602
763 2 2 2 20 51 52 414
764 2 2 2 20 418 511 512
765 2 2 2 20 558 561 562
766 2 2 2 20 52 53 547
767 2 2 2 20 84 85 416
768 2 2 2 20 402 50 551
769 2 2 2 20 67 408 550
770 2 2 2 20 408 68 552
771 2 2 2 20 554 483 567
772 2 2 2 20 51 414 551
773 2 2 2 20 464 462 548
774 2 2 2 20 458 459 460
775 2 2 2 20 466 464 467
776 2 2 2 20 583 401 585
777 2 2 2 20 466 468 469
778 2 2 2 20 577 580 581
779 2 2 2 20 556 74 561
780 2 2 2 20 478 471 479
781 2 2 2 20 465 466 549
782 2 2 2 20 75 403 561
783 2 2 2 20 424 426 605
784 2 2 2 20 460 462 463
785 2 2 2 20 473 485 501
786 2 2 2 20 484 483 554
787 2 2 2 20 501 555 606
788 2 2 2 20 40 398 580
789 2 2 2 20 463 464 465
790 2 2 2 20 552 69 553
791 2 2 2 20 498 487 499
792 2 2 2 20 580 398 581
793 2 2 2 20 37 412 582
794 2 2 2 20 72 411 597
795 2 2 2 20 491 567 573
796 2 2 2 20 489 496 574
797 2 2 2 20 412 578 582
798 2 2 2 20 460 459 461
799 2 2 2 20 567 483 573
800 2 2 2 20 412 576 578
801 2 2 2 20 454 472 592
802 2 2 2 20 73 74 556
803 2 2 2 20 462 461 473
804 2 2 2 20 43 399 572
805 2 2 2 20 455 470 568
806 2 2 2 20 401 80 571
807 2 2 2 20 576 577 579
808 2 2 2 20 38 39 575
809 2 2 2 20 584 583 585
810 2 2 2 20 36 37 582
811 2 2 2 20 468 467 471
812 2 2 2 20 39 40 580
813 2 2 2 20 411 559 597
814 2 2 2 20 562 563 564
815 2 2 2 20 561 403 562
816 2 2 2 20 452 455 568
817 2 2 2 20 80 81 571
818 2 2 2 20 449 491 573
819 2 2 2 20 69 70 553
820 2 2 2 20 460 463 598
821 2 2 2 20 68 69 552
822 2 2 2 20 79 401 583
823 2 2 2 20 562 403 563
824 2 2 2 20 457 458 475
825 2 2 2 20 78 79 583
826 2 2 2 20 576 575 577
827 2 2 2 20 557 556 558
828 2 2 2 20 463 486 598
829 2 2 2 20 72 73 411
830 2 2 2 20 411 73 556
831 2 2 2 20 559 557 560
832 2 2 2 20 81 570 571
833 2 2 2 20 501 485 555
834 2 2 2 20 500 484 506
835 2 2 2 20 412 575 576
836 2 2 2 20 472 500 592
837 2 2 2 20 458 456 459
838 2 2 2 20 417 62 546
839 2 2 2 20 43 44 399
840 2 2 2 20 37 38 412
841 2 2 2 20 81 82 570
842 2 2 2 20 397 36 582
843 2 2 2 20 42 43 572
844 2 2 2 20 42 572 588
845 2 2 2 20 457 456 458
846 2 2 2 20 558 556 561
847 2 2 2 20 449 447 490
848 2 2 2 20 413 583 584
849 2 2 2 20 412 38 575
850 2 2 2 20 82 405 570
851 2 2 2 20 452 454 455
852 2 2 2 20 507 484 554
853 2 2 2 20 489 495 496
854 2 2 2 20 491 493 567
855 2 2 2 20 452 453 454
856 2 2 2 20 35 36 397
857 2 2 2 20 40 41 398
858 2 2 2 20 46 47 404
859 2 2 2 20 49 50 402
860 2 2 2 20 575 39 580
861 2 2 2 20 70 71 400
862 2 2 2 20 75 76 403
863 2 2 2 20 77 78 413
864 2 2 2 20 79 80 401
865 2 2 2 20 50 51 551
866 2 2 2 20 82 83 405
867 2 2 2 20 472 484 500
868 2 2 2 20 506 484 507
869 2 2 2 20 411 556 557
870 2 2 2 20 454 453 472
871 2 2 2 20 455 457 470
872 2 2 2 20 490 447 593
873 2 2 2 20 490 593 596
874 2 2 2 20 521 417 522
875 2 2 2 20 491 492 493
876 2 2 2 20 503 502 504
877 2 2 2 20 452 450 453
878 2 2 2 20 446 447 448
879 2 2 2 20 41 42 588
880 2 2 2 20 456 454 592
881 2 2 2 20 472 453 483
882 2 2 2 20 461 459 586
883 2 2 2 20 446 444 447
884 2 2 2 20 472 483 484
885 2 2 2 20 449 490 491
886 2 2 2 20 577 575 580
887 2 2 2 20 413 78 583
888 2 2 2 20 411 557 559
889 2 2 2 20 443 445 476
890 2 2 2 20 455 456 457
891 2 2 2 20 451 450 452
892 2 2 2 20 450 449 573
893 2 2 2 20 445 446 474
894 2 2 2 20 448 447 449
895 2 2 2 20 451 452 568
896 2 2 2 20 455 454 456
897 2 2 2 20 448 450 451
898 2 2 2 20 491 490 492
899 2 2 2 20 71 72 597
900 2 2 2 20 448 449 450
901 2 2 2 20 403 76 599
902 2 2 2 20 445 444 446
903 2 2 2 20 475 458 598
904 2 2 2 20 443 444 445
905 2 2 2 20 441 439 480
906 2 2 2 20 563 403 599
907 2 2 2 20 482 586 602
908 2 2 2 20 483 453 573
909 2 2 2 20 398 41 588
910 2 2 2 20 440 442 443
911 2 2 2 20 442 441 477
912 2 2 2 20 66 67 550
913 2 2 2 20 443 442 444
914 2 2 2 20 497 487 498
915 2 2 2 20 500 586 592
916 2 2 2 20 593 477 596
917 2 2 2 20 77 413 599
918 2 2 2 20 586 459 592
919 2 2 2 20 589 474 590
920 2 2 2 20 538 540 541
921 2 2 2 20 443 476 591
922 2 2 2 20 437 489 574
923 2 2 2 20 598 486 603
924 2 2 2 20 488 438 591
925 2 2 2 20 445 474 589
926 2 2 2 20 485 508 509
927 2 2 2 20 447 444 593
928 2 2 2 20 453 450 573
929 2 2 2 20 440 441 442
930 2 2 2 20 458 460 598
931 2 2 2 20 485 509 555
932 2 2 2 20 444 442 593
933 2 2 2 20 436 435 595
934 2 2 2 20 476 445 589
935 2 2 2 20 486 465 487
936 2 2 2 20 45 46 587
937 2 2 2 20 482 461 586
938 2 2 2 20 473 482 485
939 2 2 2 20 437 488 489
940 2 2 2 20 76 77 599
941 2 2 2 20 440 439 441
942 2 2 2 20 459 456 592
943 2 2 2 20 492 490 596
944 2 2 2 20 424 425 426
945 2 2 2 20 442 477 593
946 2 2 2 20 489 494 495
947 2 2 2 20 437 438 488
948 2 2 2 20 486 497 603
949 2 2 2 20 434 436 437
950 2 2 2 20 46 404 587
951 2 2 2 20 480 439 595
952 2 2 2 20 438 436 439
953 2 2 2 20 434 437 574
954 2 2 2 20 437 436 438
955 2 2 2 20 439 436 595
956 2 2 2 20 473 461 482
957 2 2 2 20 400 71 597
958 2 2 2 20 438 439 440
959 2 2 2 20 489 488 494
960 2 2 2 20 485 482 508
961 2 2 2 20 541 540 542
962 2 2 2 20 467 464 548
963 2 2 2 20 466 469 549
964 2 2 2 20 434 432 435
965 2 2 2 20 463 465 486
966 2 2 2 20 488 591 601
967 2 2 2 20 434 435 436
968 2 2 2 20 486 487 497
969 2 2 2 20 591 476 601
970 2 2 2 20 426 429 605
971 2 2 2 20 534 533 536
972 2 2 2 20 479 481 502
973 2 2 2 20 597 559 600
974 2 2 2 20 471 467 604
975 2 2 2 20 438 440 591
976 2 2 2 20 430 428 431
977 2 2 2 20 479 471 481
978 2 2 2 20 433 434 574
979 2 2 2 20 532 533 534
980 2 2 2 20 475 598 603
981 2 2 2 20 440 443 591
982 2 2 2 20 494 488 601
983 2 2 2 20 528 527 529
984 2 2 2 20 400 597 600
985 2 2 2 20 538 539 540
986 2 2 2 20 430 432 433
987 2 2 2 20 433 432 434
988 2 2 2 20 430 431 432
989 2 2 2 20 502 481 505
990 2 2 2 20 604 501 606
991 2 2 2 20 429 428 430
992 2 2 2 20 467 548 604
993 2 2 2 20 522 417 546
994 2 2 2 20 586 500 602
995 2 2 2 20 535 537 538
996 2 2 2 20 538 537 539
997 2 2 2 20 426 428 429
998 2 2 2 20 419 66 550
999 2 2 2 20 65 66 419
1000 2 2 2 20 481 471 604
1001 2 2 2 20 532 534 535
1002 2 2 2 20 86 87 422
1003 2 2 2 20 426 425 427
1004 2 2 2 20 500 506 602
1005 2 2 2 20 535 534 537
1006 2 2 2 20 426 427 428
1007 2 2 2 20 124 123 409
1008 2 2 2 20 57 58 410
1009 2 2 2 20 481 604 606
1010 2 2 2 20 505 481 606
1011 2 2 2 20 431 428 607
1012 2 2 2 20 427 532 607
1013 2 2 2 20 532 535 607
1014 2 2 2 20 428 427 607
1015 2 2 2 20 538 541 608
1016 2 2 2 20 431 607 608
1017 2 2 2 20 610 595 611
1018 2 2 2 20 607 535 608
1019 2 2 2 20 435 432 609
1020 2 2 2 20 435 609 611
1021 2 2 2 20 535 538 608
1022 2 2 2 20 608 541 609
1023 2 2 2 20 542 610 611
1024 2 2 2 20 595 435 611
1025 2 2 2 20 431 608 609
1026 2 2 2 20 432 431 609
1027 2 2 2 20 609 541 611
1028 2 2 2 20 480 595 610
1029 2 2 2 20 541 542 611
1030 2 2 2 20 574 496 612
1031 2 2 2 20 433 574 612
1032 2 2 2 20 414 547 641
1033 2 2 2 20 519 429 613
1034 2 2 2 20 429 430 613
1035 2 2 2 20 433 612 613
1036 2 2 2 20 47 48 614
1037 2 2 2 20 558 565 615
1038 2 2 2 20 560 557 615
1039 2 2 2 20 510 631 656
1040 2 2 2 20 430 433 613
1041 2 2 2 20 526 550 659
1042 2 2 2 20 630 555 664
1043 2 2 2 20 476 589 616
1044 2 2 2 20 579 577 617
1045 2 2 2 20 596 477 617
1046 2 2 2 20 536 594 619
1047 2 2 2 20 418 512 618
1048 2 2 2 20 129 128 618
1049 2 2 2 20 64 65 620
1050 2 2 2 20 122 121 619
1051 2 2 2 20 404 47 614
1052 2 2 2 20 559 560 621
1053 2 2 2 20 539 415 640
1054 2 2 2 20 557 558 615
1055 2 2 2 20 498 499 627
1056 2 2 2 20 614 48 637
1057 2 2 2 20 413 584 623
1058 2 2 2 20 563 599 623
1059 2 2 2 20 581 398 624
1060 2 2 2 20 600 559 621
1061 2 2 2 20 585 401 625
1062 2 2 2 20 400 600 626
1063 2 2 2 20 416 516 646
1064 2 2 2 20 616 589 657
1065 2 2 2 20 596 617 658
1066 2 2 2 20 582 578 628
1067 2 2 2 20 584 585 616
1068 2 2 2 20 601 476 616
1069 2 2 2 20 577 581 617
1070 2 2 2 20 606 555 630
1071 2 2 2 20 479 503 632
1072 2 2 2 20 57 410 631
1073 2 2 2 20 468 478 633
1074 2 2 2 20 549 469 634
1075 2 2 2 20 415 543 647
1076 2 2 2 20 128 418 618
1077 2 2 2 20 594 122 619
1078 2 2 2 20 65 419 620
1079 2 2 2 20 475 603 621
1080 2 2 2 20 402 630 664
1081 2 2 2 20 509 614 637
1082 2 2 2 20 578 576 636
1083 2 2 2 20 49 402 637
1084 2 2 2 20 55 56 622
1085 2 2 2 20 587 507 639
1086 2 2 2 20 45 587 639
1087 2 2 2 20 399 44 639
1088 2 2 2 20 569 566 648
1089 2 2 2 20 566 564 648
1090 2 2 2 20 415 34 640
1091 2 2 2 20 35 397 640
1092 2 2 2 20 502 505 641
1093 2 2 2 20 416 85 642
1094 2 2 2 20 86 422 642
1095 2 2 2 20 523 522 644
1096 2 2 2 20 508 602 645
1097 2 2 2 20 584 616 657
1098 2 2 2 20 617 581 658
1099 2 2 2 20 84 416 646
1100 2 2 2 20 405 83 646
1101 2 2 2 20 480 610 636
1102 2 2 2 20 421 32 647
1103 2 2 2 20 33 415 647
1104 2 2 2 20 496 495 635
1105 2 2 2 20 63 4 650
1106 2 2 2 20 4 64 650
1107 2 2 2 20 121 2 651
1108 2 2 2 20 2 31 651
1109 2 2 2 20 5 129 652
1110 2 2 2 20 87 5 652
1111 2 2 2 20 567 493 629
1112 2 2 2 20 529 524 654
1113 2 2 2 20 545 528 655
1114 2 2 2 20 470 457 663
1115 2 2 2 20 441 480 660
1116 2 2 2 20 566 568 649
1117 2 2 2 20 3 55 653
1118 2 2 2 20 54 3 653
1119 2 2 2 20 554 567 629
1120 2 2 2 20 565 566 649
1121 2 2 2 20 622 56 631
1122 2 2 2 20 590 474 648
1123 2 2 2 20 599 413 623
1124 2 2 2 20 398 588 624
1125 2 2 2 20 621 560 663
1126 2 2 2 20 401 571 625
1127 2 2 2 20 570 405 635
1128 2 2 2 20 553 400 626
1129 2 2 2 20 402 551 630
1130 2 2 2 20 600 621 662
1131 2 2 2 20 408 552 627
1132 2 2 2 20 542 540 628
1133 2 2 2 20 397 582 628
1134 2 2 2 20 572 399 629
1135 2 2 2 20 579 617 660
1136 2 2 2 20 616 585 661
1137 2 2 2 20 601 616 661
1138 2 2 2 20 505 606 630
1139 2 2 2 20 621 603 662
1140 2 2 2 20 475 621 663
1141 2 2 2 20 518 496 635
1142 2 2 2 20 56 57 631
1143 2 2 2 20 478 479 632
1144 2 2 2 20 469 468 633
1145 2 2 2 20 499 549 634
1146 2 2 2 20 633 529 654
1147 2 2 2 20 632 545 655
1148 2 2 2 20 576 579 636
1149 2 2 2 20 617 477 660
1150 2 2 2 20 48 49 637
1151 2 2 2 20 503 510 656
1152 2 2 2 20 408 627 659
1153 2 2 2 20 44 45 639
1154 2 2 2 20 420 622 643
1155 2 2 2 20 34 35 640
1156 2 2 2 20 504 502 641
1157 2 2 2 20 85 86 642
1158 2 2 2 20 510 504 643
1159 2 2 2 20 526 523 644
1160 2 2 2 20 627 638 659
1161 2 2 2 20 602 506 645
1162 2 2 2 20 83 84 646
1163 2 2 2 20 615 565 649
1164 2 2 2 20 129 618 652
1165 2 2 2 20 64 620 650
1166 2 2 2 20 619 121 651
1167 2 2 2 20 626 600 662
1168 2 2 2 20 32 33 647
1169 2 2 2 20 585 625 661
1170 2 2 2 20 508 645 665
1171 2 2 2 20 474 569 648
1172 2 2 2 20 568 470 649
1173 2 2 2 20 420 54 653
1174 2 2 2 20 546 63 650
1175 2 2 2 20 31 421 651
1176 2 2 2 20 422 87 652
1177 2 2 2 20 623 584 657
1178 2 2 2 20 581 624 658
1179 2 2 2 20 637 402 664
1180 2 2 2 20 470 615 649
1181 2 2 2 20 524 525 654
1182 2 2 2 20 528 529 655
1183 2 2 2 20 499 634 638
1184 2 2 2 20 410 545 656
1185 2 2 2 20 589 590 657
1186 2 2 2 20 492 596 658
1187 2 2 2 20 550 408 659
1188 2 2 2 20 627 499 638
1189 2 2 2 20 477 441 660
1190 2 2 2 20 555 509 664
1191 2 2 2 20 494 601 661
1192 2 2 2 20 603 497 662
1193 2 2 2 20 457 475 663
1194 2 2 2 20 478 632 655
1195 2 2 2 20 469 633 654
1196 2 2 2 20 618 422 652
1197 2 2 2 20 421 619 651
1198 2 2 2 20 620 546 650
1199 2 2 2 20 622 420 653
1200 2 2 2 20 55 622 653
1201 2 2 2 20 404 614 665
1202 2 2 2 20 497 626 662
1203 2 2 2 20 625 494 661
1204 2 2 2 20 590 623 657
1205 2 2 2 20 624 492 658
1206 2 2 2 20 638 526 659
1207 2 2 2 20 509 637 664
1208 2 2 2 20 645 404 665
$EndElements
