Point(1) = {0,0,0,0.1};
Point(2) = {10,0,0,0.1};
Point(3) = {10,10,0,0.1};
Point(4) = {0,10,0,0.1};
Line(1) = {1,2};
Line(2) = {2,3};
Line(3) = {3,4};
Line(4) = {4,1};
Point(5) = {4.57141598159,5.53795147472,0,1.0};
Point(6) = {4.07141598159,5.53795147472,0,0.1};
Point(7) = {5.07141598159,5.53795147472,0,0.1};
Point(8) = {8.81789525621,4.6908506309,0,1.0};
Point(9) = {8.31789525621,4.6908506309,0,0.1};
Point(10) = {9.31789525621,4.6908506309,0,0.1};
Point(11) = {2.16194309469,5.10717775138,0,1.0};
Point(12) = {1.66194309469,5.10717775138,0,0.1};
Point(13) = {2.66194309469,5.10717775138,0,0.1};
Point(14) = {6.16894448195,7.63679185268,0,1.0};
Point(15) = {5.66894448195,7.63679185268,0,0.1};
Point(16) = {6.66894448195,7.63679185268,0,0.1};
Point(17) = {1.34711110606,3.23061136362,0,1.0};
Point(18) = {0.847111106063,3.23061136362,0,0.1};
Point(19) = {1.84711110606,3.23061136362,0,0.1};
Point(20) = {1.31603483743,7.7868008093,0,1.0};
Point(21) = {0.816034837427,7.7868008093,0,0.1};
Point(22) = {1.81603483743,7.7868008093,0,0.1};
Point(23) = {6.74094634287,0.876923027329,0,1.0};
Point(24) = {6.24094634287,0.876923027329,0,0.1};
Point(25) = {7.24094634287,0.876923027329,0,0.1};
Point(26) = {9.33974078719,9.18282003013,0,1.0};
Point(27) = {8.83974078719,9.18282003013,0,0.1};
Point(28) = {9.83974078719,9.18282003013,0,0.1};
Point(29) = {6.3853028018,6.04006434121,0,1.0};
Point(30) = {5.8853028018,6.04006434121,0,0.1};
Point(31) = {6.8853028018,6.04006434121,0,0.1};
Point(32) = {1.91744685626,0.635006632546,0,1.0};
Point(33) = {1.41744685626,0.635006632546,0,0.1};
Point(34) = {2.41744685626,0.635006632546,0,0.1};
Point(35) = {5.25543139553,1.03595994652,0,1.0};
Point(36) = {4.75543139553,1.03595994652,0,0.1};
Point(37) = {5.75543139553,1.03595994652,0,0.1};
Point(38) = {2.21187436518,2.67748712299,0,1.0};
Point(39) = {1.71187436518,2.67748712299,0,0.1};
Point(40) = {2.71187436518,2.67748712299,0,0.1};
Point(41) = {0.770743303023,4.67541015101,0,1.0};
Point(42) = {0.270743303023,4.67541015101,0,0.1};
Point(43) = {1.27074330302,4.67541015101,0,0.1};
Point(44) = {4.46478004991,8.08184415667,0,1.0};
Point(45) = {3.96478004991,8.08184415667,0,0.1};
Point(46) = {4.96478004991,8.08184415667,0,0.1};
Point(47) = {4.99795836986,6.46204578701,0,1.0};
Point(48) = {4.49795836986,6.46204578701,0,0.1};
Point(49) = {5.49795836986,6.46204578701,0,0.1};
Point(50) = {4.6159689344,3.00346609697,0,1.0};
Point(51) = {4.1159689344,3.00346609697,0,0.1};
Point(52) = {5.1159689344,3.00346609697,0,0.1};
Point(53) = {8.06193994544,6.87028659348,0,1.0};
Point(54) = {7.56193994544,6.87028659348,0,0.1};
Point(55) = {8.56193994544,6.87028659348,0,0.1};
Point(56) = {3.33749495314,2.56699311447,0,1.0};
Point(57) = {2.83749495314,2.56699311447,0,0.1};
Point(58) = {3.83749495314,2.56699311447,0,0.1};
Point(59) = {3.10135952583,1.13201149604,0,1.0};
Point(60) = {2.60135952583,1.13201149604,0,0.1};
Point(61) = {3.60135952583,1.13201149604,0,0.1};
Point(62) = {7.39659097769,4.10359824427,0,1.0};
Point(63) = {6.89659097769,4.10359824427,0,0.1};
Point(64) = {7.89659097769,4.10359824427,0,0.1};
Circle(65) = {6,5,7};
Circle(66) = {7,5,6};
Circle(67) = {9,8,10};
Circle(68) = {10,8,9};
Circle(69) = {12,11,13};
Circle(70) = {13,11,12};
Circle(71) = {15,14,16};
Circle(72) = {16,14,15};
Circle(73) = {18,17,19};
Circle(74) = {19,17,18};
Circle(75) = {21,20,22};
Circle(76) = {22,20,21};
Circle(77) = {24,23,25};
Circle(78) = {25,23,24};
Circle(79) = {27,26,28};
Circle(80) = {28,26,27};
Circle(81) = {30,29,31};
Circle(82) = {31,29,30};
Circle(83) = {33,32,34};
Circle(84) = {34,32,33};
Circle(85) = {36,35,37};
Circle(86) = {37,35,36};
Circle(87) = {39,38,40};
Circle(88) = {40,38,39};
Circle(89) = {42,41,43};
Circle(90) = {43,41,42};
Circle(91) = {45,44,46};
Circle(92) = {46,44,45};
Circle(93) = {48,47,49};
Circle(94) = {49,47,48};
Circle(95) = {51,50,52};
Circle(96) = {52,50,51};
Circle(97) = {54,53,55};
Circle(98) = {55,53,54};
Circle(99) = {57,56,58};
Circle(100) = {58,56,57};
Circle(101) = {60,59,61};
Circle(102) = {61,59,60};
Circle(103) = {63,62,64};
Circle(104) = {64,62,63};
Line Loop(105) = {3,4,1,2};
Line Loop(106) = {65,66};
Line Loop(107) = {67,68};
Line Loop(108) = {69,70};
Line Loop(109) = {71,72};
Line Loop(110) = {73,74};
Line Loop(111) = {75,76};
Line Loop(112) = {77,78};
Line Loop(113) = {79,80};
Line Loop(114) = {81,82};
Line Loop(115) = {83,84};
Line Loop(116) = {85,86};
Line Loop(117) = {87,88};
Line Loop(118) = {89,90};
Line Loop(119) = {91,92};
Line Loop(120) = {93,94};
Line Loop(121) = {95,96};
Line Loop(122) = {97,98};
Line Loop(123) = {99,100};
Line Loop(124) = {101,102};
Line Loop(125) = {103,104};
Plane Surface(126) = {105,125,124,123,122,121,120,119,118,117,116,115,114,113,112,111,110,109,108,107,106};
Physical Surface(127) = {126};
